[{"_id":1,"first_name":"Cristi","middle_name":"Broseke","last_name":"Pedrazzi","age":136,"email":"cpedrazzi0@hhs.gov","password":"$2b$10$SoQGPPnmQCTS0pRTo7LEs.zNt4q4Tldp9j8AeXY3nCuXxn81uKsDa","rol":"A"},
{"_id":2,"first_name":"Cindra","middle_name":"Cranmer","last_name":"Clench","age":141,"email":"cclench1@slate.com","password":"$2b$10$SoQGPPnmQCTS0pRTo7LEs.zNt4q4Tldp9j8AeXY3nCuXxn81uKsDa","rol":"U"},
{"_id":3,"first_name":"Ad","middle_name":"Bickersteth","last_name":"Syvret","age":89,"email":"asyvret2@sciencedirect.com","password":"$2b$10$SoQGPPnmQCTS0pRTo7LEs.zNt4q4Tldp9j8AeXY3nCuXxn81uKsDa","rol":"U"},
{"_id":4,"first_name":"Emeline","middle_name":"Graalman","last_name":"Cotesford","age":73,"email":"ecotesford3@telegraph.co.uk","password":"$2b$10$SoQGPPnmQCTS0pRTo7LEs.zNt4q4Tldp9j8AeXY3nCuXxn81uKsDa","rol":"A"},
{"_id":5,"first_name":"Glennis","middle_name":"Tredwell","last_name":"Chicco","age":83,"email":"gchicco4@wikipedia.org","password":"$2b$10$SoQGPPnmQCTS0pRTo7LEs.zNt4q4Tldp9j8AeXY3nCuXxn81uKsDa","rol":"A"},
{"_id":6,"first_name":"Franchot","middle_name":"Budnk","last_name":"Klosterman","age":50,"email":"fklosterman5@godaddy.com","password":"$2b$10$SoQGPPnmQCTS0pRTo7LEs.zNt4q4Tldp9j8AeXY3nCuXxn81uKsDa","rol":"U"},
{"_id":7,"first_name":"Suzi","middle_name":"Loble","last_name":"Repper","age":97,"email":"srepper6@psu.edu","password":"$2b$10$SoQGPPnmQCTS0pRTo7LEs.zNt4q4Tldp9j8AeXY3nCuXxn81uKsDa","rol":"A"},
{"_id":8,"first_name":"Jackqueline","middle_name":"Rookeby","last_name":"Juschka","age":35,"email":"jjuschka7@noaa.gov","password":"$2b$10$SoQGPPnmQCTS0pRTo7LEs.zNt4q4Tldp9j8AeXY3nCuXxn81uKsDa","rol":"U"},
{"_id":9,"first_name":"Tamarra","middle_name":"Whartonby","last_name":"Tooby","age":149,"email":"ttooby8@people.com.cn","password":"$2b$10$SoQGPPnmQCTS0pRTo7LEs.zNt4q4Tldp9j8AeXY3nCuXxn81uKsDa","rol":"U"},
{"_id":10,"first_name":"Tadd","middle_name":"Shimony","last_name":"Tuxell","age":126,"email":"ttuxell9@redcross.org","password":"$2b$10$SoQGPPnmQCTS0pRTo7LEs.zNt4q4Tldp9j8AeXY3nCuXxn81uKsDa","rol":"U"},
{"_id":11,"first_name":"Eugine","middle_name":"Ruzek","last_name":"Abraham","age":22,"email":"eabrahama@yahoo.co.jp","password":"$2b$10$SoQGPPnmQCTS0pRTo7LEs.zNt4q4Tldp9j8AeXY3nCuXxn81uKsDa","rol":"U"},
{"_id":12,"first_name":"Gus","middle_name":"Agirre","last_name":"Padbury","age":22,"email":"gpadburyb@tripadvisor.com","password":"$2b$10$SoQGPPnmQCTS0pRTo7LEs.zNt4q4Tldp9j8AeXY3nCuXxn81uKsDa","rol":"U"},
{"_id":13,"first_name":"Teirtza","middle_name":"Guillond","last_name":"Ziemecki","age":119,"email":"tziemeckic@apache.org","password":"$2b$10$SoQGPPnmQCTS0pRTo7LEs.zNt4q4Tldp9j8AeXY3nCuXxn81uKsDa","rol":"A"},
{"_id":14,"first_name":"Renate","middle_name":"Roisen","last_name":"Springthorp","age":104,"email":"rspringthorpd@stumbleupon.com","password":"$2b$10$SoQGPPnmQCTS0pRTo7LEs.zNt4q4Tldp9j8AeXY3nCuXxn81uKsDa","rol":"A"},
{"_id":15,"first_name":"Seumas","middle_name":"Climer","last_name":"Leguay","age":47,"email":"sleguaye@businessweek.com","password":"$2b$10$SoQGPPnmQCTS0pRTo7LEs.zNt4q4Tldp9j8AeXY3nCuXxn81uKsDa","rol":"U"},
{"_id":16,"first_name":"Tani","middle_name":"Filisov","last_name":"Nelthropp","age":40,"email":"tnelthroppf@businesswire.com","password":"$2b$10$SoQGPPnmQCTS0pRTo7LEs.zNt4q4Tldp9j8AeXY3nCuXxn81uKsDa","rol":"A"},
{"_id":17,"first_name":"Babara","middle_name":"Scragg","last_name":"McConnulty","age":44,"email":"bmcconnultyg@cyberchimps.com","password":"$2b$10$SoQGPPnmQCTS0pRTo7LEs.zNt4q4Tldp9j8AeXY3nCuXxn81uKsDa","rol":"U"},
{"_id":18,"first_name":"Rebekkah","middle_name":"Browse","last_name":"Fergyson","age":28,"email":"rfergysonh@wunderground.com","password":"$2b$10$SoQGPPnmQCTS0pRTo7LEs.zNt4q4Tldp9j8AeXY3nCuXxn81uKsDa","rol":"A"},
{"_id":19,"first_name":"Dev","middle_name":"Pring","last_name":"Klimov","age":141,"email":"dklimovi@dagondesign.com","password":"$2b$10$SoQGPPnmQCTS0pRTo7LEs.zNt4q4Tldp9j8AeXY3nCuXxn81uKsDa","rol":"U"},
{"_id":20,"first_name":"Teodora","middle_name":"Yurocjhin","last_name":"Durdle","age":126,"email":"tdurdlej@skype.com","password":"$2b$10$SoQGPPnmQCTS0pRTo7LEs.zNt4q4Tldp9j8AeXY3nCuXxn81uKsDa","rol":"A"},
{"_id":21,"first_name":"Fionna","middle_name":"Dignam","last_name":"Spillman","age":83,"email":"fspillmank@altervista.org","password":"$2b$10$SoQGPPnmQCTS0pRTo7LEs.zNt4q4Tldp9j8AeXY3nCuXxn81uKsDa","rol":"U"},
{"_id":22,"first_name":"Brianne","middle_name":"Symones","last_name":"Bohike","age":97,"email":"bbohikel@ihg.com","password":"$2b$10$SoQGPPnmQCTS0pRTo7LEs.zNt4q4Tldp9j8AeXY3nCuXxn81uKsDa","rol":"U"},
{"_id":23,"first_name":"Devonne","middle_name":"Hryniewicz","last_name":"Wessing","age":119,"email":"dwessingm@state.gov","password":"$2b$10$SoQGPPnmQCTS0pRTo7LEs.zNt4q4Tldp9j8AeXY3nCuXxn81uKsDa","rol":"U"},
{"_id":24,"first_name":"Tripp","middle_name":"Stuchburie","last_name":"Fenix","age":114,"email":"tfenixn@mac.com","password":"$2b$10$SoQGPPnmQCTS0pRTo7LEs.zNt4q4Tldp9j8AeXY3nCuXxn81uKsDa","rol":"A"},
{"_id":25,"first_name":"Maud","middle_name":"Jehu","last_name":"Shepherd","age":82,"email":"mshepherdo@diigo.com","password":"$2b$10$SoQGPPnmQCTS0pRTo7LEs.zNt4q4Tldp9j8AeXY3nCuXxn81uKsDa","rol":"U"},
{"_id":26,"first_name":"Odey","middle_name":"Stalley","last_name":"Severns","age":30,"email":"osevernsp@comsenz.com","password":"$2b$10$SoQGPPnmQCTS0pRTo7LEs.zNt4q4Tldp9j8AeXY3nCuXxn81uKsDa","rol":"A"},
{"_id":27,"first_name":"Dermot","middle_name":"Flanigan","last_name":"Blasl","age":100,"email":"dblaslq@elpais.com","password":"$2b$10$SoQGPPnmQCTS0pRTo7LEs.zNt4q4Tldp9j8AeXY3nCuXxn81uKsDa","rol":"A"},
{"_id":28,"first_name":"Genvieve","middle_name":"Ruggier","last_name":"Schruyers","age":120,"email":"gschruyersr@usda.gov","password":"$2b$10$SoQGPPnmQCTS0pRTo7LEs.zNt4q4Tldp9j8AeXY3nCuXxn81uKsDa","rol":"A"},
{"_id":29,"first_name":"Roberta","middle_name":"Jurgensen","last_name":"Berriman","age":123,"email":"rberrimans@ihg.com","password":"$2b$10$SoQGPPnmQCTS0pRTo7LEs.zNt4q4Tldp9j8AeXY3nCuXxn81uKsDa","rol":"U"},
{"_id":30,"first_name":"Merline","middle_name":"Hallyburton","last_name":"Rosterne","age":81,"email":"mrosternet@epa.gov","password":"$2b$10$SoQGPPnmQCTS0pRTo7LEs.zNt4q4Tldp9j8AeXY3nCuXxn81uKsDa","rol":"U"}]
